module discord-voicevox-talker

go 1.17

require (
	github.com/bwmarrin/dgvoice v0.0.0-20210225172318-caaac756e02e
	github.com/bwmarrin/discordgo v0.25.0
	github.com/gin-contrib/cors v1.4.0
	github.com/gin-gonic/gin v1.8.1
	github.com/google/uuid v1.1.2
	github.com/kardianos/service v1.2.1
	github.com/mattn/go-sqlite3 v1.14.14
)

require (
	github.com/gin-contrib/sse v0.1.0 // indirect
	github.com/go-playground/locales v0.14.0 // indirect
	github.com/go-playground/universal-translator v0.18.0 // indirect
	github.com/go-playground/validator/v10 v10.10.0 // indirect
	github.com/goccy/go-json v0.9.7 // indirect
	github.com/google/go-cmp v0.5.8 // indirect
	github.com/gorilla/websocket v1.4.2 // indirect
	github.com/json-iterator/go v1.1.12 // indirect
	github.com/leodido/go-urn v1.2.1 // indirect
	github.com/mattn/go-isatty v0.0.14 // indirect
	github.com/modern-go/concurrent v0.0.0-20180306012644-bacd9c7ef1dd // indirect
	github.com/modern-go/reflect2 v1.0.2 // indirect
	github.com/pelletier/go-toml/v2 v2.0.1 // indirect
	github.com/ugorji/go/codec v1.2.7 // indirect
	golang.org/x/crypto v0.0.0-20220411220226-7b82a4e95df4 // indirect
	golang.org/x/net v0.0.0-20220520000938-2e3eb7b945c2 // indirect
	golang.org/x/sys v0.0.0-20220520151302-bc2c85ada10a // indirect
	golang.org/x/text v0.3.7 // indirect
	google.golang.org/protobuf v1.28.0 // indirect
	gopkg.in/yaml.v2 v2.4.0 // indirect
	layeh.com/gopus v0.0.0-20210501142526-1ee02d434e32 // indirect
)
